Deskriptive Analyse
…
df$`Global contract type` <- replace(df$`Global contract type`,df$`Global contract type`== "permanent staff","0")
df$`Global contract type` <- replace(df$`Global contract type`,df$`Global contract type`== "temporary personnel","1")

YearsOfService_BASFall

Dieses Merkmal beschreibt, wie lange die Person im Unternehmen bisher ttig war.

unique(df$YearsOfService_BASFall)

## # A tibble: 29 x 1
##    YearsOfService_BASFall
##                     <dbl>
##  1                     19
##  2                      8
##  3                     13
##  4                     16
##  5                      9
##  6                     15
##  7                     12
##  8                     14
##  9                     10
## 10                     17
## # ... with 19 more rows
…
